62160069WATCHARAPHON    88634559A 
62160069WATCHARAPHON    88634219A 
62160069WATCHARAPHON    88635259A 
62160069WATCHARAPHON    88647859A 
62160069WATCHARAPHON    88648159A 
62160069WATCHARAPHON    88649159A 